simulation/modelsim/msim_transcript
# Reading pref.tcl
# do rv64_pipeline_run_msim_rtl_verilog.do
# if {[file exists rtl_work]} {
# 	vdel -lib rtl_work -all
# }
# vlib rtl_work
# vmap work rtl_work
# Model Technology ModelSim - Intel FPGA Edition vmap 2020.1 Lib Mapping Utility 2020.02 Feb 28 2020
# vmap work rtl_work 
# Copying C:/intelFPGA_lite/20.1/modelsim_ase/win32aloem/../modelsim.ini to modelsim.ini
# Modifying modelsim.ini
# 
# vlog -vlog01compat -work work +incdir+C:/Users/User/Desktop/RiscV_64b_pipeline/code/components {C:/Users/User/Desktop/RiscV_64b_pipeline/code/components/Top_Module.v}
# Model Technology ModelSim - Intel FPGA Edition vlog 2020.1 Compiler 2020.02 Feb 28 2020
# Start time: 22:45:52 on Mar 24,2026
# vlog -reportprogress 300 -vlog01compat -work work "+incdir+C:/Users/User/Desktop/RiscV_64b_pipeline/code/components" C:/Users/User/Desktop/RiscV_64b_pipeline/code/components/Top_Module.v 
# -- Compiling module Top_Module
# 
# Top level modules:
# 	Top_Module
# End time: 22:45:53 on Mar 24,2026, Elapsed time: 0:00:01
# Errors: 0, Warnings: 0
# vlog -vlog01compat -work work +incdir+C:/Users/User/Desktop/RiscV_64b_pipeline/code/components {C:/Users/User/Desktop/RiscV_64b_pipeline/code/components/Stalling_Unit.v}
# Model Technology ModelSim - Intel FPGA Edition vlog 2020.1 Compiler 2020.02 Feb 28 2020
# Start time: 22:45:53 on Mar 24,2026
# vlog -reportprogress 300 -vlog01compat -work work "+incdir+C:/Users/User/Desktop/RiscV_64b_pipeline/code/components" C:/Users/User/Desktop/RiscV_64b_pipeline/code/components/Stalling_Unit.v 
# -- Compiling module Stalling_Unit
# 
# Top level modules:
# 	Stalling_Unit
# End time: 22:45:53 on Mar 24,2026, Elapsed time: 0:00:00
# Errors: 0, Warnings: 0
# vlog -vlog01compat -work work +incdir+C:/Users/User/Desktop/RiscV_64b_pipeline/code/components {C:/Users/User/Desktop/RiscV_64b_pipeline/code/components/RiscV_CPU.v}
# Model Technology ModelSim - Intel FPGA Edition vlog 2020.1 Compiler 2020.02 Feb 28 2020
# Start time: 22:45:53 on Mar 24,2026
# vlog -reportprogress 300 -vlog01compat -work work "+incdir+C:/Users/User/Desktop/RiscV_64b_pipeline/code/components" C:/Users/User/Desktop/RiscV_64b_pipeline/code/components/RiscV_CPU.v 
# -- Compiling module RiscV_CPU
# 
# Top level modules:
# 	RiscV_CPU
# End time: 22:45:53 on Mar 24,2026, Elapsed time: 0:00:00
# Errors: 0, Warnings: 0
# vlog -vlog01compat -work work +incdir+C:/Users/User/Desktop/RiscV_64b_pipeline/code/components {C:/Users/User/Desktop/RiscV_64b_pipeline/code/components/Register_File.v}
# Model Technology ModelSim - Intel FPGA Edition vlog 2020.1 Compiler 2020.02 Feb 28 2020
# Start time: 22:45:53 on Mar 24,2026
# vlog -reportprogress 300 -vlog01compat -work work "+incdir+C:/Users/User/Desktop/RiscV_64b_pipeline/code/components" C:/Users/User/Desktop/RiscV_64b_pipeline/code/components/Register_File.v 
# -- Compiling module Register_File
# 
# Top level modules:
# 	Register_File
# End time: 22:45:54 on Mar 24,2026, Elapsed time: 0:00:01
# Errors: 0, Warnings: 0
# vlog -vlog01compat -work work +incdir+C:/Users/User/Desktop/RiscV_64b_pipeline/code/components {C:/Users/User/Desktop/RiscV_64b_pipeline/code/components/NonArch_Reg.v}
# Model Technology ModelSim - Intel FPGA Edition vlog 2020.1 Compiler 2020.02 Feb 28 2020
# Start time: 22:45:54 on Mar 24,2026
# vlog -reportprogress 300 -vlog01compat -work work "+incdir+C:/Users/User/Desktop/RiscV_64b_pipeline/code/components" C:/Users/User/Desktop/RiscV_64b_pipeline/code/components/NonArch_Reg.v 
# -- Compiling module NonArch_Reg
# 
# Top level modules:
# 	NonArch_Reg
# End time: 22:45:54 on Mar 24,2026, Elapsed time: 0:00:00
# Errors: 0, Warnings: 0
# vlog -vlog01compat -work work +incdir+C:/Users/User/Desktop/RiscV_64b_pipeline/code/components {C:/Users/User/Desktop/RiscV_64b_pipeline/code/components/Mux4.v}
# Model Technology ModelSim - Intel FPGA Edition vlog 2020.1 Compiler 2020.02 Feb 28 2020
# Start time: 22:45:54 on Mar 24,2026
# vlog -reportprogress 300 -vlog01compat -work work "+incdir+C:/Users/User/Desktop/RiscV_64b_pipeline/code/components" C:/Users/User/Desktop/RiscV_64b_pipeline/code/components/Mux4.v 
# -- Compiling module Mux4
# 
# Top level modules:
# 	Mux4
# End time: 22:45:54 on Mar 24,2026, Elapsed time: 0:00:00
# Errors: 0, Warnings: 0
# vlog -vlog01compat -work work +incdir+C:/Users/User/Desktop/RiscV_64b_pipeline/code/components {C:/Users/User/Desktop/RiscV_64b_pipeline/code/components/Mux3.v}
# Model Technology ModelSim - Intel FPGA Edition vlog 2020.1 Compiler 2020.02 Feb 28 2020
# Start time: 22:45:54 on Mar 24,2026
# vlog -reportprogress 300 -vlog01compat -work work "+incdir+C:/Users/User/Desktop/RiscV_64b_pipeline/code/components" C:/Users/User/Desktop/RiscV_64b_pipeline/code/components/Mux3.v 
# -- Compiling module Mux3
# 
# Top level modules:
# 	Mux3
# End time: 22:45:54 on Mar 24,2026, Elapsed time: 0:00:00
# Errors: 0, Warnings: 0
# vlog -vlog01compat -work work +incdir+C:/Users/User/Desktop/RiscV_64b_pipeline/code/components {C:/Users/User/Desktop/RiscV_64b_pipeline/code/components/Mux2.v}
# Model Technology ModelSim - Intel FPGA Edition vlog 2020.1 Compiler 2020.02 Feb 28 2020
# Start time: 22:45:55 on Mar 24,2026
# vlog -reportprogress 300 -vlog01compat -work work "+incdir+C:/Users/User/Desktop/RiscV_64b_pipeline/code/components" C:/Users/User/Desktop/RiscV_64b_pipeline/code/components/Mux2.v 
# -- Compiling module Mux2
# 
# Top level modules:
# 	Mux2
# End time: 22:45:55 on Mar 24,2026, Elapsed time: 0:00:00
# Errors: 0, Warnings: 0
# vlog -vlog01compat -work work +incdir+C:/Users/User/Desktop/RiscV_64b_pipeline/code/components {C:/Users/User/Desktop/RiscV_64b_pipeline/code/components/Main_Controller.v}
# Model Technology ModelSim - Intel FPGA Edition vlog 2020.1 Compiler 2020.02 Feb 28 2020
# Start time: 22:45:55 on Mar 24,2026
# vlog -reportprogress 300 -vlog01compat -work work "+incdir+C:/Users/User/Desktop/RiscV_64b_pipeline/code/components" C:/Users/User/Desktop/RiscV_64b_pipeline/code/components/Main_Controller.v 
# -- Compiling module Main_Controller
# 
# Top level modules:
# 	Main_Controller
# End time: 22:45:55 on Mar 24,2026, Elapsed time: 0:00:00
# Errors: 0, Warnings: 0
# vlog -vlog01compat -work work +incdir+C:/Users/User/Desktop/RiscV_64b_pipeline/code/components {C:/Users/User/Desktop/RiscV_64b_pipeline/code/components/Forwarding_Unit.v}
# Model Technology ModelSim - Intel FPGA Edition vlog 2020.1 Compiler 2020.02 Feb 28 2020
# Start time: 22:45:55 on Mar 24,2026
# vlog -reportprogress 300 -vlog01compat -work work "+incdir+C:/Users/User/Desktop/RiscV_64b_pipeline/code/components" C:/Users/User/Desktop/RiscV_64b_pipeline/code/components/Forwarding_Unit.v 
# -- Compiling module Forwarding_Unit
# 
# Top level modules:
# 	Forwarding_Unit
# End time: 22:45:55 on Mar 24,2026, Elapsed time: 0:00:00
# Errors: 0, Warnings: 0
# vlog -vlog01compat -work work +incdir+C:/Users/User/Desktop/RiscV_64b_pipeline/code/components {C:/Users/User/Desktop/RiscV_64b_pipeline/code/components/Extend_Unit.v}
# Model Technology ModelSim - Intel FPGA Edition vlog 2020.1 Compiler 2020.02 Feb 28 2020
# Start time: 22:45:55 on Mar 24,2026
# vlog -reportprogress 300 -vlog01compat -work work "+incdir+C:/Users/User/Desktop/RiscV_64b_pipeline/code/components" C:/Users/User/Desktop/RiscV_64b_pipeline/code/components/Extend_Unit.v 
# -- Compiling module Extend_Unit
# 
# Top level modules:
# 	Extend_Unit
# End time: 22:45:56 on Mar 24,2026, Elapsed time: 0:00:01
# Errors: 0, Warnings: 0
# vlog -vlog01compat -work work +incdir+C:/Users/User/Desktop/RiscV_64b_pipeline/code/components {C:/Users/User/Desktop/RiscV_64b_pipeline/code/components/Data_Path.v}
# Model Technology ModelSim - Intel FPGA Edition vlog 2020.1 Compiler 2020.02 Feb 28 2020
# Start time: 22:45:56 on Mar 24,2026
# vlog -reportprogress 300 -vlog01compat -work work "+incdir+C:/Users/User/Desktop/RiscV_64b_pipeline/code/components" C:/Users/User/Desktop/RiscV_64b_pipeline/code/components/Data_Path.v 
# -- Compiling module Data_Path
# 
# Top level modules:
# 	Data_Path
# End time: 22:45:56 on Mar 24,2026, Elapsed time: 0:00:00
# Errors: 0, Warnings: 0
# vlog -vlog01compat -work work +incdir+C:/Users/User/Desktop/RiscV_64b_pipeline/code/components {C:/Users/User/Desktop/RiscV_64b_pipeline/code/components/Data_Mem.v}
# Model Technology ModelSim - Intel FPGA Edition vlog 2020.1 Compiler 2020.02 Feb 28 2020
# Start time: 22:45:56 on Mar 24,2026
# vlog -reportprogress 300 -vlog01compat -work work "+incdir+C:/Users/User/Desktop/RiscV_64b_pipeline/code/components" C:/Users/User/Desktop/RiscV_64b_pipeline/code/components/Data_Mem.v 
# -- Compiling module Data_mem
# 
# Top level modules:
# 	Data_mem
# End time: 22:45:56 on Mar 24,2026, Elapsed time: 0:00:00
# Errors: 0, Warnings: 0
# vlog -vlog01compat -work work +incdir+C:/Users/User/Desktop/RiscV_64b_pipeline/code/components {C:/Users/User/Desktop/RiscV_64b_pipeline/code/components/Control_Path.v}
# Model Technology ModelSim - Intel FPGA Edition vlog 2020.1 Compiler 2020.02 Feb 28 2020
# Start time: 22:45:56 on Mar 24,2026
# vlog -reportprogress 300 -vlog01compat -work work "+incdir+C:/Users/User/Desktop/RiscV_64b_pipeline/code/components" C:/Users/User/Desktop/RiscV_64b_pipeline/code/components/Control_Path.v 
# -- Compiling module Control_Path
# 
# Top level modules:
# 	Control_Path
# End time: 22:45:56 on Mar 24,2026, Elapsed time: 0:00:00
# Errors: 0, Warnings: 0
# vlog -vlog01compat -work work +incdir+C:/Users/User/Desktop/RiscV_64b_pipeline/code/components {C:/Users/User/Desktop/RiscV_64b_pipeline/code/components/ALU_Controller.v}
# Model Technology ModelSim - Intel FPGA Edition vlog 2020.1 Compiler 2020.02 Feb 28 2020
# Start time: 22:45:57 on Mar 24,2026
# vlog -reportprogress 300 -vlog01compat -work work "+incdir+C:/Users/User/Desktop/RiscV_64b_pipeline/code/components" C:/Users/User/Desktop/RiscV_64b_pipeline/code/components/ALU_Controller.v 
# -- Compiling module ALU_Controller
# 
# Top level modules:
# 	ALU_Controller
# End time: 22:45:57 on Mar 24,2026, Elapsed time: 0:00:00
# Errors: 0, Warnings: 0
# vlog -vlog01compat -work work +incdir+C:/Users/User/Desktop/RiscV_64b_pipeline/code/components {C:/Users/User/Desktop/RiscV_64b_pipeline/code/components/ALU.v}
# Model Technology ModelSim - Intel FPGA Edition vlog 2020.1 Compiler 2020.02 Feb 28 2020
# Start time: 22:45:57 on Mar 24,2026
# vlog -reportprogress 300 -vlog01compat -work work "+incdir+C:/Users/User/Desktop/RiscV_64b_pipeline/code/components" C:/Users/User/Desktop/RiscV_64b_pipeline/code/components/ALU.v 
# -- Compiling module ALU
# 
# Top level modules:
# 	ALU
# End time: 22:45:57 on Mar 24,2026, Elapsed time: 0:00:00
# Errors: 0, Warnings: 0
# vlog -vlog01compat -work work +incdir+C:/Users/User/Desktop/RiscV_64b_pipeline/code/components {C:/Users/User/Desktop/RiscV_64b_pipeline/code/components/Adder.v}
# Model Technology ModelSim - Intel FPGA Edition vlog 2020.1 Compiler 2020.02 Feb 28 2020
# Start time: 22:45:57 on Mar 24,2026
# vlog -reportprogress 300 -vlog01compat -work work "+incdir+C:/Users/User/Desktop/RiscV_64b_pipeline/code/components" C:/Users/User/Desktop/RiscV_64b_pipeline/code/components/Adder.v 
# -- Compiling module Adder
# 
# Top level modules:
# 	Adder
# End time: 22:45:57 on Mar 24,2026, Elapsed time: 0:00:00
# Errors: 0, Warnings: 0
# vlog -vlog01compat -work work +incdir+C:/Users/User/Desktop/RiscV_64b_pipeline/code/components {C:/Users/User/Desktop/RiscV_64b_pipeline/code/components/Instruction_Mem.v}
# Model Technology ModelSim - Intel FPGA Edition vlog 2020.1 Compiler 2020.02 Feb 28 2020
# Start time: 22:45:57 on Mar 24,2026
# vlog -reportprogress 300 -vlog01compat -work work "+incdir+C:/Users/User/Desktop/RiscV_64b_pipeline/code/components" C:/Users/User/Desktop/RiscV_64b_pipeline/code/components/Instruction_Mem.v 
# -- Compiling module Instruction_Mem
# 
# Top level modules:
# 	Instruction_Mem
# End time: 22:45:58 on Mar 24,2026, Elapsed time: 0:00:01
# Errors: 0, Warnings: 0
# 
# vlog -vlog01compat -work work +incdir+C:/Users/User/Desktop/RiscV_64b_pipeline/.test {C:/Users/User/Desktop/RiscV_64b_pipeline/.test/tb.v}
# Model Technology ModelSim - Intel FPGA Edition vlog 2020.1 Compiler 2020.02 Feb 28 2020
# Start time: 22:45:58 on Mar 24,2026
# vlog -reportprogress 300 -vlog01compat -work work "+incdir+C:/Users/User/Desktop/RiscV_64b_pipeline/.test" C:/Users/User/Desktop/RiscV_64b_pipeline/.test/tb.v 
# -- Compiling module tb
# 
# Top level modules:
# 	tb
# End time: 22:45:58 on Mar 24,2026, Elapsed time: 0:00:00
# Errors: 0, Warnings: 0
# 
# vsim -t 1ps -L altera_ver -L lpm_ver -L sgate_ver -L altera_mf_ver -L altera_lnsim_ver -L cycloneive_ver -L rtl_work -L work -voptargs="+acc"  tb
# vsim -t 1ps -L altera_ver -L lpm_ver -L sgate_ver -L altera_mf_ver -L altera_lnsim_ver -L cycloneive_ver -L rtl_work -L work -voptargs=""+acc"" tb 
# Start time: 22:45:58 on Mar 24,2026
# Loading work.tb
# Loading work.Top_Module
# Loading work.RiscV_CPU
# Loading work.Control_Path
# Loading work.NonArch_Reg
# Loading work.Main_Controller
# Loading work.ALU_Controller
# Loading work.Data_Path
# Loading work.Adder
# Loading work.Mux2
# Loading work.Register_File
# Loading work.Mux4
# Loading work.Extend_Unit
# Loading work.ALU
# Loading work.Mux3
# Loading work.Forwarding_Unit
# Loading work.Stalling_Unit
# Loading work.Instruction_Mem
# Loading work.Data_mem
# 
# add wave *
# view structure
# .main_pane.structure.interior.cs.body.struct
# view signals
# .main_pane.objects.interior.cs.body.tree
# run -all
# Time	PCF	PCD	PCE	PCM	PCW	Result
# 5000	xxxxxxxxxxxxxxxx	xxxxxxxxxxxxxxxx	xxxxxxxxxxxxxxxx	xxxxxxxxxxxxxxxx	xxxxxxxxxxxxxxxx	                   x
# 15000	0000000000000000	0000000000000000	0000000000000000	0000000000000000	0000000000000000	                   0
# 25000	0000000000000000	0000000000000000	0000000000000000	0000000000000000	0000000000000000	                   0
# 35000	0000000000000004	0000000000000000	0000000000000000	0000000000000000	0000000000000000	                   0
# 45000	0000000000000008	0000000000000004	0000000000000000	0000000000000000	0000000000000000	                   0
# 55000	000000000000000c	0000000000000008	0000000000000004	0000000000000000	0000000000000000	                   0
# 65000	0000000000000010	000000000000000c	0000000000000008	0000000000000004	0000000000000000	                   1
# 75000	0000000000000014	0000000000000010	000000000000000c	0000000000000008	0000000000000004	                  16
# 85000	0000000000000018	0000000000000014	0000000000000010	000000000000000c	0000000000000008	18446744073709551613
# 95000	000000000000001c	0000000000000018	0000000000000014	0000000000000010	000000000000000c	                   0
# 105000	0000000000000020	000000000000001c	0000000000000018	0000000000000014	0000000000000010	                   9
# 115000	0000000000000024	0000000000000020	000000000000001c	0000000000000018	0000000000000014	                  64
# 125000	0000000000000028	0000000000000024	0000000000000020	000000000000001c	0000000000000018	                   0
# 135000	000000000000002c	0000000000000028	0000000000000024	0000000000000020	000000000000001c	                   1
# 145000	0000000000000030	000000000000002c	0000000000000028	0000000000000024	0000000000000020	                   2
# 155000	0000000000000034	0000000000000030	000000000000002c	0000000000000028	0000000000000024	           536870911
# 165000	0000000000000038	0000000000000034	0000000000000030	000000000000002c	0000000000000028	           536870911
# 175000	000000000000003c	0000000000000038	0000000000000034	0000000000000030	000000000000002c	          4294967295
# 185000	0000000000000040	000000000000003c	0000000000000038	0000000000000034	0000000000000030	                   1
# 195000	0000000000000044	0000000000000040	000000000000003c	0000000000000038	0000000000000034	                  17
# 205000	0000000000000048	0000000000000044	0000000000000040	000000000000003c	0000000000000038	                  15
# 215000	000000000000004c	0000000000000048	0000000000000044	0000000000000040	000000000000003c	                  32
# 225000	0000000000000050	000000000000004c	0000000000000048	0000000000000044	0000000000000040	                   1
# 235000	0000000000000054	0000000000000050	000000000000004c	0000000000000048	0000000000000044	                   1
# 245000	0000000000000058	0000000000000054	0000000000000050	000000000000004c	0000000000000048	                  17
# 255000	000000000000005c	0000000000000058	0000000000000054	0000000000000050	000000000000004c	                   8
# 265000	0000000000000060	000000000000005c	0000000000000058	0000000000000054	0000000000000050	                   8
# 275000	0000000000000064	0000000000000060	000000000000005c	0000000000000058	0000000000000054	                  17
# 285000	0000000000000068	0000000000000064	0000000000000060	000000000000005c	0000000000000058	                   0
# 295000	000000000000006c	0000000000000068	0000000000000064	0000000000000060	000000000000005c	            33554432
# 📝 MEM WRITE: Addr=0000000000000021 Data=0000000000000001
# 305000	0000000000000070	000000000000006c	0000000000000068	0000000000000064	0000000000000060	            33554528
# 📝 MEM WRITE: Addr=0000000000000026 Data=00000000fffffffd
# 315000	0000000000000074	0000000000000070	000000000000006c	0000000000000068	0000000000000064	                   x
# 📝 MEM WRITE: Addr=0000000000000028 Data=0000000000000010
# 325000	0000000000000078	0000000000000074	0000000000000070	000000000000006c	0000000000000068	                   x
# 335000	000000000000007c	0000000000000078	0000000000000074	0000000000000070	000000000000006c	                   x
# 345000	0000000000000080	000000000000007c	0000000000000078	0000000000000074	0000000000000070	                   1
# 355000	0000000000000084	0000000000000080	000000000000007c	0000000000000078	0000000000000074	18446744073709551613
# 365000	0000000000000088	0000000000000084	0000000000000080	000000000000007c	0000000000000078	                  16
# 375000	000000000000008c	0000000000000088	0000000000000084	0000000000000080	000000000000007c	                   1
# 385000	0000000000000090	000000000000008c	0000000000000088	0000000000000084	0000000000000080	               65533
# 395000	0000000000000094	0000000000000090	000000000000008c	0000000000000088	0000000000000084	                   0
# 405000	0000000000000098	0000000000000094	0000000000000090	000000000000008c	0000000000000088	18446744073709551611
# 415000	000000000000009c	0000000000000098	0000000000000094	0000000000000090	000000000000008c	                   5
# 425000	00000000000000a0	000000000000009c	0000000000000098	0000000000000094	0000000000000090	                   1
# 435000	00000000000000a4	00000000000000a0	000000000000009c	0000000000000098	0000000000000094	                  65
# 445000	00000000000000a8	00000000000000a4	00000000000000a0	000000000000009c	0000000000000098	                   x
# 455000	00000000000000ac	00000000000000a8	00000000000000a4	00000000000000a0	000000000000009c	                  65
# 465000	00000000000000b0	00000000000000ac	00000000000000a8	00000000000000a4	00000000000000a0	                   0
# 475000	00000000000000b4	00000000000000b0	00000000000000ac	00000000000000a8	00000000000000a4	18446744073709551611
# 485000	00000000000000b8	00000000000000b4	00000000000000b0	00000000000000ac	00000000000000a8	                   5
# 495000	00000000000000bc	00000000000000b8	00000000000000b4	00000000000000b0	00000000000000ac	                   2
# 505000	00000000000000c0	00000000000000bc	00000000000000b8	00000000000000b4	00000000000000b0	                   4
# 515000	00000000000000c4	00000000000000c0	00000000000000bc	00000000000000b8	00000000000000b4	                   x
# 525000	00000000000000c8	00000000000000c4	00000000000000c0	00000000000000bc	00000000000000b8	                   4
# 535000	00000000000000cc	00000000000000c8	00000000000000c4	00000000000000c0	00000000000000bc	                   0
# 545000	00000000000000d0	00000000000000cc	00000000000000c8	00000000000000c4	00000000000000c0	                   1
# 555000	00000000000000d4	00000000000000d0	00000000000000cc	00000000000000c8	00000000000000c4	                   5
# 565000	00000000000000d8	00000000000000d4	00000000000000d0	00000000000000cc	00000000000000c8	                   3
# 575000	00000000000000dc	00000000000000d8	00000000000000d4	00000000000000d0	00000000000000cc	           536870912
# 585000	00000000000000e0	00000000000000dc	00000000000000d8	00000000000000d4	00000000000000d0	                   x
# 595000	00000000000000e4	00000000000000e0	00000000000000dc	00000000000000d8	00000000000000d4	           536870912
# 605000	00000000000000e8	00000000000000e4	00000000000000e0	00000000000000dc	00000000000000d8	                   0
# 615000	00000000000000ec	00000000000000e8	00000000000000e4	00000000000000e0	00000000000000dc	                   1
# 625000	00000000000000f0	00000000000000ec	00000000000000e8	00000000000000e4	00000000000000e0	                   5
# 635000	00000000000000f4	00000000000000f0	00000000000000ec	00000000000000e8	00000000000000e4	                   4
# 645000	00000000000000e4	0000000000000000	0000000000000000	00000000000000ec	00000000000000e8	                   4
# 655000	00000000000000e8	00000000000000e4	0000000000000000	0000000000000000	00000000000000ec	                   x
# 665000	00000000000000ec	00000000000000e8	00000000000000e4	0000000000000000	0000000000000000	                   0
# 675000	00000000000000f0	00000000000000ec	00000000000000e8	00000000000000e4	0000000000000000	                   0
# 685000	00000000000000f4	00000000000000f0	00000000000000ec	00000000000000e8	00000000000000e4	                   5
# 695000	00000000000000e4	0000000000000000	0000000000000000	00000000000000ec	00000000000000e8	                   3
# 705000	00000000000000e8	00000000000000e4	0000000000000000	0000000000000000	00000000000000ec	                   x
# 715000	00000000000000ec	00000000000000e8	00000000000000e4	0000000000000000	0000000000000000	                   0
# 725000	00000000000000f0	00000000000000ec	00000000000000e8	00000000000000e4	0000000000000000	                   0
# 735000	00000000000000f4	00000000000000f0	00000000000000ec	00000000000000e8	00000000000000e4	                   6
# 745000	00000000000000e4	0000000000000000	0000000000000000	00000000000000ec	00000000000000e8	                   2
# 755000	00000000000000e8	00000000000000e4	0000000000000000	0000000000000000	00000000000000ec	                   x
# 765000	00000000000000ec	00000000000000e8	00000000000000e4	0000000000000000	0000000000000000	                   0
# 775000	00000000000000f0	00000000000000ec	00000000000000e8	00000000000000e4	0000000000000000	                   0
# 785000	00000000000000f4	00000000000000f0	00000000000000ec	00000000000000e8	00000000000000e4	                   7
# 795000	00000000000000e4	0000000000000000	0000000000000000	00000000000000ec	00000000000000e8	                   1
# 805000	00000000000000e8	00000000000000e4	0000000000000000	0000000000000000	00000000000000ec	                   x
# 815000	00000000000000ec	00000000000000e8	00000000000000e4	0000000000000000	0000000000000000	                   0
# 825000	00000000000000f0	00000000000000ec	00000000000000e8	00000000000000e4	0000000000000000	                   0
# 835000	00000000000000f4	00000000000000f0	00000000000000ec	00000000000000e8	00000000000000e4	                   8
# 845000	00000000000000f8	00000000000000f4	00000000000000f0	00000000000000ec	00000000000000e8	                   0
# 855000	00000000000000fc	00000000000000f8	00000000000000f4	00000000000000f0	00000000000000ec	                   x
# 865000	0000000000000100	00000000000000fc	00000000000000f8	00000000000000f4	00000000000000f0	                   0
# 875000	0000000000000104	0000000000000100	00000000000000fc	00000000000000f8	00000000000000f4	                   0
# 885000	0000000000000108	0000000000000104	0000000000000100	00000000000000fc	00000000000000f8	                   5
# 895000	000000000000010c	0000000000000108	0000000000000104	0000000000000100	00000000000000fc	                   0
# 905000	0000000000000110	000000000000010c	0000000000000108	0000000000000104	0000000000000100	                   9
# 915000	0000000000000100	0000000000000000	0000000000000000	0000000000000108	0000000000000104	                   1
# 925000	0000000000000104	0000000000000100	0000000000000000	0000000000000000	0000000000000108	                   x
# 935000	0000000000000108	0000000000000104	0000000000000100	0000000000000000	0000000000000000	                   0
# 945000	000000000000010c	0000000000000108	0000000000000104	0000000000000100	0000000000000000	                   0
# 955000	0000000000000110	000000000000010c	0000000000000108	0000000000000104	0000000000000100	                  10
# 965000	0000000000000100	0000000000000000	0000000000000000	0000000000000108	0000000000000104	                   2
# 975000	0000000000000104	0000000000000100	0000000000000000	0000000000000000	0000000000000108	                   x
# 985000	0000000000000108	0000000000000104	0000000000000100	0000000000000000	0000000000000000	                   0
# 995000	000000000000010c	0000000000000108	0000000000000104	0000000000000100	0000000000000000	                   0
# 1005000	0000000000000110	000000000000010c	0000000000000108	0000000000000104	0000000000000100	                  11
# 1015000	0000000000000100	0000000000000000	0000000000000000	0000000000000108	0000000000000104	                   3
# 1025000	0000000000000104	0000000000000100	0000000000000000	0000000000000000	0000000000000108	                   x
# 1035000	0000000000000108	0000000000000104	0000000000000100	0000000000000000	0000000000000000	                   0
# 1045000	000000000000010c	0000000000000108	0000000000000104	0000000000000100	0000000000000000	                   0
# 1055000	0000000000000110	000000000000010c	0000000000000108	0000000000000104	0000000000000100	                  12
# 1065000	0000000000000100	0000000000000000	0000000000000000	0000000000000108	0000000000000104	                   4
# 1075000	0000000000000104	0000000000000100	0000000000000000	0000000000000000	0000000000000108	                   x
# 1085000	0000000000000108	0000000000000104	0000000000000100	0000000000000000	0000000000000000	                   0
# 1095000	000000000000010c	0000000000000108	0000000000000104	0000000000000100	0000000000000000	                   0
# 1105000	0000000000000110	000000000000010c	0000000000000108	0000000000000104	0000000000000100	                  13
# 1115000	0000000000000114	0000000000000110	000000000000010c	0000000000000108	0000000000000104	                   5
# 1125000	0000000000000118	0000000000000114	0000000000000110	000000000000010c	0000000000000108	                   x
# 1135000	000000000000011c	0000000000000118	0000000000000114	0000000000000110	000000000000010c	                   5
# 1145000	0000000000000120	000000000000011c	0000000000000118	0000000000000114	0000000000000110	                   0
# 1155000	0000000000000124	0000000000000120	000000000000011c	0000000000000118	0000000000000114	                   2
# 1165000	0000000000000128	0000000000000124	0000000000000120	000000000000011c	0000000000000118	                   3
# 1175000	000000000000012c	0000000000000128	0000000000000124	0000000000000120	000000000000011c	                  14
# 1185000	0000000000000130	000000000000012c	0000000000000128	0000000000000124	0000000000000120	                  33
# 1195000	0000000000000134	0000000000000130	000000000000012c	0000000000000128	0000000000000124	                   x
# 1205000	0000000000000134	0000000000000000	0000000000000000	000000000000012c	0000000000000128	                  33
# 1215000	0000000000000138	0000000000000134	0000000000000000	0000000000000000	000000000000012c	                 304
# 1225000	000000000000013c	0000000000000138	0000000000000134	0000000000000000	0000000000000000	                   0
# 1235000	0000000000000140	000000000000013c	0000000000000138	0000000000000134	0000000000000000	                   0
# 1245000	0000000000000138	0000000000000000	0000000000000000	0000000000000138	0000000000000134	                   0
# 1255000	000000000000013c	0000000000000138	0000000000000000	0000000000000000	0000000000000138	                 316
# 1265000	0000000000000140	000000000000013c	0000000000000138	0000000000000000	0000000000000000	                   0
# 1275000	0000000000000138	0000000000000000	0000000000000000	0000000000000138	0000000000000000	                   0
# 1285000	000000000000013c	0000000000000138	0000000000000000	0000000000000000	0000000000000138	                 316
# 1295000	0000000000000140	000000000000013c	0000000000000138	0000000000000000	0000000000000000	                   0
# 1305000	0000000000000138	0000000000000000	0000000000000000	0000000000000138	0000000000000000	                   0
# 1315000	000000000000013c	0000000000000138	0000000000000000	0000000000000000	0000000000000138	                 316
# 1325000	0000000000000140	000000000000013c	0000000000000138	0000000000000000	0000000000000000	                   0
# 1335000	0000000000000138	0000000000000000	0000000000000000	0000000000000138	0000000000000000	                   0
# 1345000	000000000000013c	0000000000000138	0000000000000000	0000000000000000	0000000000000138	                 316
# 1355000	0000000000000140	000000000000013c	0000000000000138	0000000000000000	0000000000000000	                   0
# 1365000	0000000000000138	0000000000000000	0000000000000000	0000000000000138	0000000000000000	                   0
# 1375000	000000000000013c	0000000000000138	0000000000000000	0000000000000000	0000000000000138	                 316
# 1385000	0000000000000140	000000000000013c	0000000000000138	0000000000000000	0000000000000000	                   0
# 1395000	0000000000000138	0000000000000000	0000000000000000	0000000000000138	0000000000000000	                   0
# 1405000	000000000000013c	0000000000000138	0000000000000000	0000000000000000	0000000000000138	                 316
# 1415000	0000000000000140	000000000000013c	0000000000000138	0000000000000000	0000000000000000	                   0
# 1425000	0000000000000138	0000000000000000	0000000000000000	0000000000000138	0000000000000000	                   0
# 1435000	000000000000013c	0000000000000138	0000000000000000	0000000000000000	0000000000000138	                 316
# 1445000	0000000000000140	000000000000013c	0000000000000138	0000000000000000	0000000000000000	                   0
# 1455000	0000000000000138	0000000000000000	0000000000000000	0000000000000138	0000000000000000	                   0
# 1465000	000000000000013c	0000000000000138	0000000000000000	0000000000000000	0000000000000138	                 316
# 1475000	0000000000000140	000000000000013c	0000000000000138	0000000000000000	0000000000000000	                   0
# 1485000	0000000000000138	0000000000000000	0000000000000000	0000000000000138	0000000000000000	                   0
# 1495000	000000000000013c	0000000000000138	0000000000000000	0000000000000000	0000000000000138	                 316
# 1505000	0000000000000140	000000000000013c	0000000000000138	0000000000000000	0000000000000000	                   0
# 1515000	0000000000000138	0000000000000000	0000000000000000	0000000000000138	0000000000000000	                   0
# 1525000	000000000000013c	0000000000000138	0000000000000000	0000000000000000	0000000000000138	                 316
# 1535000	0000000000000140	000000000000013c	0000000000000138	0000000000000000	0000000000000000	                   0
# 1545000	0000000000000138	0000000000000000	0000000000000000	0000000000000138	0000000000000000	                   0
# 1555000	000000000000013c	0000000000000138	0000000000000000	0000000000000000	0000000000000138	                 316
# 1565000	0000000000000140	000000000000013c	0000000000000138	0000000000000000	0000000000000000	                   0
# 1575000	0000000000000138	0000000000000000	0000000000000000	0000000000000138	0000000000000000	                   0
# 1585000	000000000000013c	0000000000000138	0000000000000000	0000000000000000	0000000000000138	                 316
# 1595000	0000000000000140	000000000000013c	0000000000000138	0000000000000000	0000000000000000	                   0
# 1605000	0000000000000138	0000000000000000	0000000000000000	0000000000000138	0000000000000000	                   0
# 1615000	000000000000013c	0000000000000138	0000000000000000	0000000000000000	0000000000000138	                 316
# 1625000	0000000000000140	000000000000013c	0000000000000138	0000000000000000	0000000000000000	                   0
# 1635000	0000000000000138	0000000000000000	0000000000000000	0000000000000138	0000000000000000	                   0
