code/components/transcript
# vsim -c -L work_check_forward_now tb -do "run -all; quit -f" 
# Start time: 22:48:37 on Mar 24,2026
# Loading work.tb
# Loading work_check_forward_now.Top_Module
# Loading work_check_forward_now.RiscV_CPU
# Loading work_check_forward_now.Control_Path
# Loading work_check_forward_now.NonArch_Reg
# Loading work_check_forward_now.Main_Controller
# Loading work_check_forward_now.ALU_Controller
# Loading work_check_forward_now.Data_Path
# Loading work_check_forward_now.Adder
# Loading work_check_forward_now.Mux2
# Loading work_check_forward_now.Register_File
# Loading work_check_forward_now.Mux4
# Loading work_check_forward_now.Extend_Unit
# Loading work_check_forward_now.ALU
# Loading work_check_forward_now.Mux3
# Loading work_check_forward_now.Forwarding_Unit
# Loading work_check_forward_now.Stalling_Unit
# Loading work_check_forward_now.Instruction_Mem
# Loading work_check_forward_now.Data_mem
# ** Warning: (vsim-3015) [PCDPC] - Port size (64) does not match connection size (32) for port 'Ext_WriteData'. The port definition is at: Top_Module.v(7).
#    Time: 0 ps  Iteration: 0  Instance: /tb/uut File: ../../.test/tb.v Line: 13
# ** Warning: (vsim-3015) [PCDPC] - Port size (64) does not match connection size (32) for port 'Ext_DataAdr'. The port definition is at: Top_Module.v(7).
#    Time: 0 ps  Iteration: 0  Instance: /tb/uut File: ../../.test/tb.v Line: 13
# ** Warning: (vsim-3015) [PCDPC] - Port size (64) does not match connection size (32) for port 'WD_DataMem'. The port definition is at: Top_Module.v(9).
#    Time: 0 ps  Iteration: 0  Instance: /tb/uut File: ../../.test/tb.v Line: 13
# ** Warning: (vsim-3015) [PCDPC] - Port size (64) does not match connection size (32) for port 'A_DataMem'. The port definition is at: Top_Module.v(9).
#    Time: 0 ps  Iteration: 0  Instance: /tb/uut File: ../../.test/tb.v Line: 13
# ** Warning: (vsim-3015) [PCDPC] - Port size (64) does not match connection size (32) for port 'RD_DataMem'. The port definition is at: Top_Module.v(9).
#    Time: 0 ps  Iteration: 0  Instance: /tb/uut File: ../../.test/tb.v Line: 13
# ** Warning: (vsim-3015) [PCDPC] - Port size (64) does not match connection size (32) for port 'PC'. The port definition is at: Top_Module.v(10).
#    Time: 0 ps  Iteration: 0  Instance: /tb/uut File: ../../.test/tb.v Line: 13
# ** Warning: (vsim-3015) [PCDPC] - Port size (64) does not match connection size (32) for port 'PCD'. The port definition is at: Top_Module.v(10).
#    Time: 0 ps  Iteration: 0  Instance: /tb/uut File: ../../.test/tb.v Line: 13
# ** Warning: (vsim-3015) [PCDPC] - Port size (64) does not match connection size (32) for port 'PCE'. The port definition is at: Top_Module.v(10).
#    Time: 0 ps  Iteration: 0  Instance: /tb/uut File: ../../.test/tb.v Line: 13
# ** Warning: (vsim-3015) [PCDPC] - Port size (64) does not match connection size (32) for port 'PCM'. The port definition is at: Top_Module.v(10).
#    Time: 0 ps  Iteration: 0  Instance: /tb/uut File: ../../.test/tb.v Line: 13
# ** Warning: (vsim-3015) [PCDPC] - Port size (64) does not match connection size (32) for port 'PCW'. The port definition is at: Top_Module.v(10).
#    Time: 0 ps  Iteration: 0  Instance: /tb/uut File: ../../.test/tb.v Line: 13
# ** Warning: (vsim-3015) [PCDPC] - Port size (64) does not match connection size (32) for port 'Result'. The port definition is at: Top_Module.v(10).
#    Time: 0 ps  Iteration: 0  Instance: /tb/uut File: ../../.test/tb.v Line: 13
# run -all
# Time	PCF	PCD	PCE	PCM	PCW	Result
# 5000	xxxxxxxx	xxxxxxxx	xxxxxxxx	xxxxxxxx	xxxxxxxx	         x
# 15000	00000000	00000000	00000000	00000000	00000000	         0
# 25000	00000000	00000000	00000000	00000000	00000000	         0
# 35000	00000004	00000000	00000000	00000000	00000000	         0
# 45000	00000008	00000004	00000000	00000000	00000000	         0
# 55000	0000000c	00000008	00000004	00000000	00000000	         0
# 65000	00000010	0000000c	00000008	00000004	00000000	         1
# 75000	00000014	00000010	0000000c	00000008	00000004	        16
# 85000	00000018	00000014	00000010	0000000c	00000008	4294967293
# 95000	0000001c	00000018	00000014	00000010	0000000c	         0
# 105000	00000020	0000001c	00000018	00000014	00000010	         9
# 115000	00000024	00000020	0000001c	00000018	00000014	        64
# 125000	00000028	00000024	00000020	0000001c	00000018	         0
# 135000	0000002c	00000028	00000024	00000020	0000001c	         1
# 145000	00000030	0000002c	00000028	00000024	00000020	         2
# 155000	00000034	00000030	0000002c	00000028	00000024	 536870911
# 165000	00000038	00000034	00000030	0000002c	00000028	 536870911
# 175000	0000003c	00000038	00000034	00000030	0000002c	4294967295
# 185000	00000040	0000003c	00000038	00000034	00000030	         1
# 195000	00000044	00000040	0000003c	00000038	00000034	        17
# 205000	00000048	00000044	00000040	0000003c	00000038	        15
# 215000	0000004c	00000048	00000044	00000040	0000003c	        32
# 225000	00000050	0000004c	00000048	00000044	00000040	         1
# 235000	00000054	00000050	0000004c	00000048	00000044	         1
# 245000	00000058	00000054	00000050	0000004c	00000048	        17
# 255000	0000005c	00000058	00000054	00000050	0000004c	         8
# 265000	00000060	0000005c	00000058	00000054	00000050	         8
# 275000	00000064	00000060	0000005c	00000058	00000054	        17
# 285000	00000068	00000064	00000060	0000005c	00000058	         0
# 295000	0000006c	00000068	00000064	00000060	0000005c	  33554432
# 📝 MEM WRITE: Addr=00000021 Data=00000001
# 305000	00000070	0000006c	00000068	00000064	00000060	  33554528
# 📝 MEM WRITE: Addr=00000026 Data=fffffffd
# 315000	00000074	00000070	0000006c	00000068	00000064	         x
# 📝 MEM WRITE: Addr=00000028 Data=00000010
# 325000	00000078	00000074	00000070	0000006c	00000068	         x
# 335000	0000007c	00000078	00000074	00000070	0000006c	         x
# 345000	00000080	0000007c	00000078	00000074	00000070	         1
# 355000	00000084	00000080	0000007c	00000078	00000074	4294967293
# 365000	00000088	00000084	00000080	0000007c	00000078	        16
# 375000	0000008c	00000088	00000084	00000080	0000007c	         1
# 385000	00000090	0000008c	00000088	00000084	00000080	     65533
# 395000	00000094	00000090	0000008c	00000088	00000084	         0
# 405000	00000098	00000094	00000090	0000008c	00000088	4294967291
# 415000	0000009c	00000098	00000094	00000090	0000008c	         5
# 425000	000000a0	0000009c	00000098	00000094	00000090	         1
# 435000	000000a4	000000a0	0000009c	00000098	00000094	        65
# 445000	000000a8	000000a4	000000a0	0000009c	00000098	         x
# 455000	000000ac	000000a8	000000a4	000000a0	0000009c	        65
# 465000	000000b0	000000ac	000000a8	000000a4	000000a0	         0
# 475000	000000b4	000000b0	000000ac	000000a8	000000a4	4294967291
# 485000	000000b8	000000b4	000000b0	000000ac	000000a8	         5
# 495000	000000bc	000000b8	000000b4	000000b0	000000ac	         2
# 505000	000000c0	000000bc	000000b8	000000b4	000000b0	         4
# 515000	000000c4	000000c0	000000bc	000000b8	000000b4	         x
# 525000	000000c8	000000c4	000000c0	000000bc	000000b8	         4
# 535000	000000cc	000000c8	000000c4	000000c0	000000bc	         0
# 545000	000000d0	000000cc	000000c8	000000c4	000000c0	         1
# 555000	000000d4	000000d0	000000cc	000000c8	000000c4	         5
# 565000	000000d8	000000d4	000000d0	000000cc	000000c8	         3
# 575000	000000dc	000000d8	000000d4	000000d0	000000cc	 536870912
# 585000	000000e0	000000dc	000000d8	000000d4	000000d0	         x
# 595000	000000e4	000000e0	000000dc	000000d8	000000d4	 536870912
# 605000	000000e8	000000e4	000000e0	000000dc	000000d8	         0
# 615000	000000ec	000000e8	000000e4	000000e0	000000dc	         1
# 625000	000000f0	000000ec	000000e8	000000e4	000000e0	         5
# 635000	000000f4	000000f0	000000ec	000000e8	000000e4	         4
# 645000	000000e4	00000000	00000000	000000ec	000000e8	         4
# 655000	000000e8	000000e4	00000000	00000000	000000ec	         x
# 665000	000000ec	000000e8	000000e4	00000000	00000000	         0
# 675000	000000f0	000000ec	000000e8	000000e4	00000000	         0
# 685000	000000f4	000000f0	000000ec	000000e8	000000e4	         5
# 695000	000000e4	00000000	00000000	000000ec	000000e8	         3
# 705000	000000e8	000000e4	00000000	00000000	000000ec	         x
# 715000	000000ec	000000e8	000000e4	00000000	00000000	         0
# 725000	000000f0	000000ec	000000e8	000000e4	00000000	         0
# 735000	000000f4	000000f0	000000ec	000000e8	000000e4	         6
# 745000	000000e4	00000000	00000000	000000ec	000000e8	         2
# 755000	000000e8	000000e4	00000000	00000000	000000ec	         x
# 765000	000000ec	000000e8	000000e4	00000000	00000000	         0
# 775000	000000f0	000000ec	000000e8	000000e4	00000000	         0
# 785000	000000f4	000000f0	000000ec	000000e8	000000e4	         7
# 795000	000000e4	00000000	00000000	000000ec	000000e8	         1
# 805000	000000e8	000000e4	00000000	00000000	000000ec	         x
# 815000	000000ec	000000e8	000000e4	00000000	00000000	         0
# 825000	000000f0	000000ec	000000e8	000000e4	00000000	         0
# 835000	000000f4	000000f0	000000ec	000000e8	000000e4	         8
# 845000	000000f8	000000f4	000000f0	000000ec	000000e8	         0
# 855000	000000fc	000000f8	000000f4	000000f0	000000ec	         x
# 865000	00000100	000000fc	000000f8	000000f4	000000f0	         0
# 875000	00000104	00000100	000000fc	000000f8	000000f4	         0
# 885000	00000108	00000104	00000100	000000fc	000000f8	         5
# 895000	0000010c	00000108	00000104	00000100	000000fc	         0
# 905000	00000110	0000010c	00000108	00000104	00000100	         9
# 915000	00000100	00000000	00000000	00000108	00000104	         1
# 925000	00000104	00000100	00000000	00000000	00000108	         x
# 935000	00000108	00000104	00000100	00000000	00000000	         0
# 945000	0000010c	00000108	00000104	00000100	00000000	         0
# 955000	00000110	0000010c	00000108	00000104	00000100	        10
# 965000	00000100	00000000	00000000	00000108	00000104	         2
# 975000	00000104	00000100	00000000	00000000	00000108	         x
# 985000	00000108	00000104	00000100	00000000	00000000	         0
# 995000	0000010c	00000108	00000104	00000100	00000000	         0
# 1005000	00000110	0000010c	00000108	00000104	00000100	        11
# 1015000	00000100	00000000	00000000	00000108	00000104	         3
# 1025000	00000104	00000100	00000000	00000000	00000108	         x
# 1035000	00000108	00000104	00000100	00000000	00000000	         0
# 1045000	0000010c	00000108	00000104	00000100	00000000	         0
# 1055000	00000110	0000010c	00000108	00000104	00000100	        12
# 1065000	00000100	00000000	00000000	00000108	00000104	         4
# 1075000	00000104	00000100	00000000	00000000	00000108	         x
# 1085000	00000108	00000104	00000100	00000000	00000000	         0
# 1095000	0000010c	00000108	00000104	00000100	00000000	         0
# 1105000	00000110	0000010c	00000108	00000104	00000100	        13
# 1115000	00000114	00000110	0000010c	00000108	00000104	         5
# 1125000	00000118	00000114	00000110	0000010c	00000108	         x
# 1135000	0000011c	00000118	00000114	00000110	0000010c	         5
# 1145000	00000120	0000011c	00000118	00000114	00000110	         0
# 1155000	00000124	00000120	0000011c	00000118	00000114	         2
# 1165000	00000128	00000124	00000120	0000011c	00000118	         3
# 1175000	0000012c	00000128	00000124	00000120	0000011c	        14
# 1185000	00000130	0000012c	00000128	00000124	00000120	        33
# 1195000	00000134	00000130	0000012c	00000128	00000124	         x
# 1205000	00000134	00000000	00000000	0000012c	00000128	        33
# 1215000	00000138	00000134	00000000	00000000	0000012c	       304
# 1225000	0000013c	00000138	00000134	00000000	00000000	         0
# 1235000	00000140	0000013c	00000138	00000134	00000000	         0
# 1245000	00000138	00000000	00000000	00000138	00000134	         0
# 1255000	0000013c	00000138	00000000	00000000	00000138	       316
# 1265000	00000140	0000013c	00000138	00000000	00000000	         0
# 1275000	00000138	00000000	00000000	00000138	00000000	         0
# 1285000	0000013c	00000138	00000000	00000000	00000138	       316
# 1295000	00000140	0000013c	00000138	00000000	00000000	         0
# 1305000	00000138	00000000	00000000	00000138	00000000	         0
# 1315000	0000013c	00000138	00000000	00000000	00000138	       316
# 1325000	00000140	0000013c	00000138	00000000	00000000	         0
# 1335000	00000138	00000000	00000000	00000138	00000000	         0
# 1345000	0000013c	00000138	00000000	00000000	00000138	       316
# 1355000	00000140	0000013c	00000138	00000000	00000000	         0
# 1365000	00000138	00000000	00000000	00000138	00000000	         0
# 1375000	0000013c	00000138	00000000	00000000	00000138	       316
# 1385000	00000140	0000013c	00000138	00000000	00000000	         0
# 1395000	00000138	00000000	00000000	00000138	00000000	         0
# 1405000	0000013c	00000138	00000000	00000000	00000138	       316
# 1415000	00000140	0000013c	00000138	00000000	00000000	         0
# 1425000	00000138	00000000	00000000	00000138	00000000	         0
# 1435000	0000013c	00000138	00000000	00000000	00000138	       316
# 1445000	00000140	0000013c	00000138	00000000	00000000	         0
# 1455000	00000138	00000000	00000000	00000138	00000000	         0
# 1465000	0000013c	00000138	00000000	00000000	00000138	       316
# 1475000	00000140	0000013c	00000138	00000000	00000000	         0
# 1485000	00000138	00000000	00000000	00000138	00000000	         0
# 1495000	0000013c	00000138	00000000	00000000	00000138	       316
# 1505000	00000140	0000013c	00000138	00000000	00000000	         0
# 1515000	00000138	00000000	00000000	00000138	00000000	         0
# 1525000	0000013c	00000138	00000000	00000000	00000138	       316
# 1535000	00000140	0000013c	00000138	00000000	00000000	         0
# 1545000	00000138	00000000	00000000	00000138	00000000	         0
# 1555000	0000013c	00000138	00000000	00000000	00000138	       316
# 1565000	00000140	0000013c	00000138	00000000	00000000	         0
# 1575000	00000138	00000000	00000000	00000138	00000000	         0
# 1585000	0000013c	00000138	00000000	00000000	00000138	       316
# 1595000	00000140	0000013c	00000138	00000000	00000000	         0
# 1605000	00000138	00000000	00000000	00000138	00000000	         0
# 1615000	0000013c	00000138	00000000	00000000	00000138	       316
# 1625000	00000140	0000013c	00000138	00000000	00000000	         0
# 1635000	00000138	00000000	00000000	00000138	00000000	         0
# 1645000	0000013c	00000138	00000000	00000000	00000138	       316
# 1655000	00000140	0000013c	00000138	00000000	00000000	         0
# 1665000	00000138	00000000	00000000	00000138	00000000	         0
# 1675000	0000013c	00000138	00000000	00000000	00000138	       316
# 1685000	00000140	0000013c	00000138	00000000	00000000	         0
# 1695000	00000138	00000000	00000000	00000138	00000000	         0
# 1705000	0000013c	00000138	00000000	00000000	00000138	       316
# 1715000	00000140	0000013c	00000138	00000000	00000000	         0
# 1725000	00000138	00000000	00000000	00000138	00000000	         0
# 1735000	0000013c	00000138	00000000	00000000	00000138	       316
# 1745000	00000140	0000013c	00000138	00000000	00000000	         0
# 1755000	00000138	00000000	00000000	00000138	00000000	         0
# 1765000	0000013c	00000138	00000000	00000000	00000138	       316
# 1775000	00000140	0000013c	00000138	00000000	00000000	         0
# 1785000	00000138	00000000	00000000	00000138	00000000	         0
# 1795000	0000013c	00000138	00000000	00000000	00000138	       316
# 1805000	00000140	0000013c	00000138	00000000	00000000	         0
# 1815000	00000138	00000000	00000000	00000138	00000000	         0
# 1825000	0000013c	00000138	00000000	00000000	00000138	       316
# 1835000	00000140	0000013c	00000138	00000000	00000000	         0
# 1845000	00000138	00000000	00000000	00000138	00000000	         0
# 1855000	0000013c	00000138	00000000	00000000	00000138	       316
# 1865000	00000140	0000013c	00000138	00000000	00000000	         0
# 1875000	00000138	00000000	00000000	00000138	00000000	         0
# 1885000	0000013c	00000138	00000000	00000000	00000138	       316
# 1895000	00000140	0000013c	00000138	00000000	00000000	         0
# 1905000	00000138	00000000	00000000	00000138	00000000	         0
# 1915000	0000013c	00000138	00000000	00000000	00000138	       316
# 1925000	00000140	0000013c	00000138	00000000	00000000	         0
# 1935000	00000138	00000000	00000000	00000138	00000000	         0
# 1945000	0000013c	00000138	00000000	00000000	00000138	       316
# 1955000	00000140	0000013c	00000138	00000000	00000000	         0
# 1965000	00000138	00000000	00000000	00000138	00000000	         0
# 1975000	0000013c	00000138	00000000	00000000	00000138	       316
# 1985000	00000140	0000013c	00000138	00000000	00000000	         0
# 1995000	00000138	00000000	00000000	00000138	00000000	         0
# 2005000	0000013c	00000138	00000000	00000000	00000138	       316
# 2015000	00000140	0000013c	00000138	00000000	00000000	         0
# 2025000	00000138	00000000	00000000	00000138	00000000	         0
# 2035000	0000013c	00000138	00000000	00000000	00000138	       316
# 2045000	00000140	0000013c	00000138	00000000	00000000	         0
# 2055000	00000138	00000000	00000000	00000138	00000000	         0
# 2065000	0000013c	00000138	00000000	00000000	00000138	       316
# 2075000	00000140	0000013c	00000138	00000000	00000000	         0
# 2085000	00000138	00000000	00000000	00000138	00000000	         0
# 2095000	0000013c	00000138	00000000	00000000	00000138	       316
# 2105000	00000140	0000013c	00000138	00000000	00000000	         0
# 2115000	00000138	00000000	00000000	00000138	00000000	         0
# 2125000	0000013c	00000138	00000000	00000000	00000138	       316
# 2135000	00000140	0000013c	00000138	00000000	00000000	         0
# 2145000	00000138	00000000	00000000	00000138	00000000	         0
# 2155000	0000013c	00000138	00000000	00000000	00000138	       316
# 2165000	00000140	0000013c	00000138	00000000	00000000	         0
# 2175000	00000138	00000000	00000000	00000138	00000000	         0
# 2185000	0000013c	00000138	00000000	00000000	00000138	       316
# 2195000	00000140	0000013c	00000138	00000000	00000000	         0
# 2205000	00000138	00000000	00000000	00000138	00000000	         0
# 2215000	0000013c	00000138	00000000	00000000	00000138	       316
# 2225000	00000140	0000013c	00000138	00000000	00000000	         0
# 2235000	00000138	00000000	00000000	00000138	00000000	         0
# 2245000	0000013c	00000138	00000000	00000000	00000138	       316
# 2255000	00000140	0000013c	00000138	00000000	00000000	         0
# 2265000	00000138	00000000	00000000	00000138	00000000	         0
# 2275000	0000013c	00000138	00000000	00000000	00000138	       316
# 2285000	00000140	0000013c	00000138	00000000	00000000	         0
# 2295000	00000138	00000000	00000000	00000138	00000000	         0
# 2305000	0000013c	00000138	00000000	00000000	00000138	       316
# 2315000	00000140	0000013c	00000138	00000000	00000000	         0
# 2325000	00000138	00000000	00000000	00000138	00000000	         0
# 2335000	0000013c	00000138	00000000	00000000	00000138	       316
# 2345000	00000140	0000013c	00000138	00000000	00000000	         0
# 2355000	00000138	00000000	00000000	00000138	00000000	         0
# 2365000	0000013c	00000138	00000000	00000000	00000138	       316
# 2375000	00000140	0000013c	00000138	00000000	00000000	         0
# 2385000	00000138	00000000	00000000	00000138	00000000	         0
# 2395000	0000013c	00000138	00000000	00000000	00000138	       316
# 2405000	00000140	0000013c	00000138	00000000	00000000	         0
# 2415000	00000138	00000000	00000000	00000138	00000000	         0
# 2425000	0000013c	00000138	00000000	00000000	00000138	       316
# 2435000	00000140	0000013c	00000138	00000000	00000000	         0
# 2445000	00000138	00000000	00000000	00000138	00000000	         0
# 2455000	0000013c	00000138	00000000	00000000	00000138	       316
# 2465000	00000140	0000013c	00000138	00000000	00000000	         0
# 2475000	00000138	00000000	00000000	00000138	00000000	         0
# 2485000	0000013c	00000138	00000000	00000000	00000138	       316
# 2495000	00000140	0000013c	00000138	00000000	00000000	         0
# 2505000	00000138	00000000	00000000	00000138	00000000	         0
# 2515000	0000013c	00000138	00000000	00000000	00000138	       316
# 2525000	00000140	0000013c	00000138	00000000	00000000	         0
# 2535000	00000138	00000000	00000000	00000138	00000000	         0
# 2545000	0000013c	00000138	00000000	00000000	00000138	       316
# 2555000	00000140	0000013c	00000138	00000000	00000000	         0
# 2565000	00000138	00000000	00000000	00000138	00000000	         0
# 2575000	0000013c	00000138	00000000	00000000	00000138	       316
# 2585000	00000140	0000013c	00000138	00000000	00000000	         0
# 2595000	00000138	00000000	00000000	00000138	00000000	         0
# 2605000	0000013c	00000138	00000000	00000000	00000138	       316
# 2615000	00000140	0000013c	00000138	00000000	00000000	         0
# 2625000	00000138	00000000	00000000	00000138	00000000	         0
# 2635000	0000013c	00000138	00000000	00000000	00000138	       316
# 2645000	00000140	0000013c	00000138	00000000	00000000	         0
# 2655000	00000138	00000000	00000000	00000138	00000000	         0
# 2665000	0000013c	00000138	00000000	00000000	00000138	       316
# 2675000	00000140	0000013c	00000138	00000000	00000000	         0
# 2685000	00000138	00000000	00000000	00000138	00000000	         0
# 2695000	0000013c	00000138	00000000	00000000	00000138	       316
# 2705000	00000140	0000013c	00000138	00000000	00000000	         0
# 2715000	00000138	00000000	00000000	00000138	00000000	         0
# 2725000	0000013c	00000138	00000000	00000000	00000138	       316
# 2735000	00000140	0000013c	00000138	00000000	00000000	         0
# 2745000	00000138	00000000	00000000	00000138	00000000	         0
# 2755000	0000013c	00000138	00000000	00000000	00000138	       316
# 2765000	00000140	0000013c	00000138	00000000	00000000	         0
# 2775000	00000138	00000000	00000000	00000138	00000000	         0
# 2785000	0000013c	00000138	00000000	00000000	00000138	       316
# 2795000	00000140	0000013c	00000138	00000000	00000000	         0
# 2805000	00000138	00000000	00000000	00000138	00000000	         0
# 2815000	0000013c	00000138	00000000	00000000	00000138	       316
# 2825000	00000140	0000013c	00000138	00000000	00000000	         0
# 2835000	00000138	00000000	00000000	00000138	00000000	         0
# 2845000	0000013c	00000138	00000000	00000000	00000138	       316
# 2855000	00000140	0000013c	00000138	00000000	00000000	         0
# 2865000	00000138	00000000	00000000	00000138	00000000	         0
# 2875000	0000013c	00000138	00000000	00000000	00000138	       316
# 2885000	00000140	0000013c	00000138	00000000	00000000	         0
# 2895000	00000138	00000000	00000000	00000138	00000000	         0
# 2905000	0000013c	00000138	00000000	00000000	00000138	       316
# 2915000	00000140	0000013c	00000138	00000000	00000000	         0
# 2925000	00000138	00000000	00000000	00000138	00000000	         0
# 2935000	0000013c	00000138	00000000	00000000	00000138	       316
# 2945000	00000140	0000013c	00000138	00000000	00000000	         0
# 2955000	00000138	00000000	00000000	00000138	00000000	         0
# 2965000	0000013c	00000138	00000000	00000000	00000138	       316
# 2975000	00000140	0000013c	00000138	00000000	00000000	         0
# 2985000	00000138	00000000	00000000	00000138	00000000	         0
# 2995000	0000013c	00000138	00000000	00000000	00000138	       316
# 3005000	00000140	0000013c	00000138	00000000	00000000	         0
# 3015000	00000138	00000000	00000000	00000138	00000000	         0
# 3025000	0000013c	00000138	00000000	00000000	00000138	       316
# 3035000	00000140	0000013c	00000138	00000000	00000000	         0
# 3045000	00000138	00000000	00000000	00000138	00000000	         0
# 3055000	0000013c	00000138	00000000	00000000	00000138	       316
# 3065000	00000140	0000013c	00000138	00000000	00000000	         0
# 3075000	00000138	00000000	00000000	00000138	00000000	         0
# 3085000	0000013c	00000138	00000000	00000000	00000138	       316
# 3095000	00000140	0000013c	00000138	00000000	00000000	         0
# 3105000	00000138	00000000	00000000	00000138	00000000	         0
# 3115000	0000013c	00000138	00000000	00000000	00000138	       316
# 3125000	00000140	0000013c	00000138	00000000	00000000	         0
# 3135000	00000138	00000000	00000000	00000138	00000000	         0
# 3145000	0000013c	00000138	00000000	00000000	00000138	       316
# 3155000	00000140	0000013c	00000138	00000000	00000000	         0
# 3165000	00000138	00000000	00000000	00000138	00000000	         0
# 3175000	0000013c	00000138	00000000	00000000	00000138	       316
# 3185000	00000140	0000013c	00000138	00000000	00000000	         0
# 3195000	00000138	00000000	00000000	00000138	00000000	         0
# 3205000	0000013c	00000138	00000000	00000000	00000138	       316
# 3215000	00000140	0000013c	00000138	00000000	00000000	         0
# 3225000	00000138	00000000	00000000	00000138	00000000	         0
# 3235000	0000013c	00000138	00000000	00000000	00000138	       316
# 3245000	00000140	0000013c	00000138	00000000	00000000	         0
# 3255000	00000138	00000000	00000000	00000138	00000000	         0
# 3265000	0000013c	00000138	00000000	00000000	00000138	       316
# 3275000	00000140	0000013c	00000138	00000000	00000000	         0
# 3285000	00000138	00000000	00000000	00000138	00000000	         0
# 3295000	0000013c	00000138	00000000	00000000	00000138	       316
# 3305000	00000140	0000013c	00000138	00000000	00000000	         0
# 3315000	00000138	00000000	00000000	00000138	00000000	         0
# 3325000	0000013c	00000138	00000000	00000000	00000138	       316
# 3335000	00000140	0000013c	00000138	00000000	00000000	         0
# 3345000	00000138	00000000	00000000	00000138	00000000	         0
# 3355000	0000013c	00000138	00000000	00000000	00000138	       316
# 3365000	00000140	0000013c	00000138	00000000	00000000	         0
# 3375000	00000138	00000000	00000000	00000138	00000000	         0
# 3385000	0000013c	00000138	00000000	00000000	00000138	       316
# 3395000	00000140	0000013c	00000138	00000000	00000000	         0
# 3405000	00000138	00000000	00000000	00000138	00000000	         0
# 3415000	0000013c	00000138	00000000	00000000	00000138	       316
# 3425000	00000140	0000013c	00000138	00000000	00000000	         0
# 3435000	00000138	00000000	00000000	00000138	00000000	         0
# 3445000	0000013c	00000138	00000000	00000000	00000138	       316
# 3455000	00000140	0000013c	00000138	00000000	00000000	         0
# 3465000	00000138	00000000	00000000	00000138	00000000	         0
# 3475000	0000013c	00000138	00000000	00000000	00000138	       316
# 3485000	00000140	0000013c	00000138	00000000	00000000	         0
# 3495000	00000138	00000000	00000000	00000138	00000000	         0
# 3505000	0000013c	00000138	00000000	00000000	00000138	       316
# 3515000	00000140	0000013c	00000138	00000000	00000000	         0
# 3525000	00000138	00000000	00000000	00000138	00000000	         0
# 3535000	0000013c	00000138	00000000	00000000	00000138	       316
# 3545000	00000140	0000013c	00000138	00000000	00000000	         0
# 3555000	00000138	00000000	00000000	00000138	00000000	         0
# 3565000	0000013c	00000138	00000000	00000000	00000138	       316
# 3575000	00000140	0000013c	00000138	00000000	00000000	         0
# 3585000	00000138	00000000	00000000	00000138	00000000	         0
# 3595000	0000013c	00000138	00000000	00000000	00000138	       316
# 3605000	00000140	0000013c	00000138	00000000	00000000	         0
# 3615000	00000138	00000000	00000000	00000138	00000000	         0
# 3625000	0000013c	00000138	00000000	00000000	00000138	       316
# 3635000	00000140	0000013c	00000138	00000000	00000000	         0
# 3645000	00000138	00000000	00000000	00000138	00000000	         0
# 3655000	0000013c	00000138	00000000	00000000	00000138	       316
# 3665000	00000140	0000013c	00000138	00000000	00000000	         0
# 3675000	00000138	00000000	00000000	00000138	00000000	         0
# 3685000	0000013c	00000138	00000000	00000000	00000138	       316
# 3695000	00000140	0000013c	00000138	00000000	00000000	         0
# 3705000	00000138	00000000	00000000	00000138	00000000	         0
# 3715000	0000013c	00000138	00000000	00000000	00000138	       316
# 3725000	00000140	0000013c	00000138	00000000	00000000	         0
# 3735000	00000138	00000000	00000000	00000138	00000000	         0
# 3745000	0000013c	00000138	00000000	00000000	00000138	       316
# 3755000	00000140	0000013c	00000138	00000000	00000000	         0
# 3765000	00000138	00000000	00000000	00000138	00000000	         0
# 3775000	0000013c	00000138	00000000	00000000	00000138	       316
# 3785000	00000140	0000013c	00000138	00000000	00000000	         0
# 3795000	00000138	00000000	00000000	00000138	00000000	         0
# 3805000	0000013c	00000138	00000000	00000000	00000138	       316
# 3815000	00000140	0000013c	00000138	00000000	00000000	         0
# 3825000	00000138	00000000	00000000	00000138	00000000	         0
# 3835000	0000013c	00000138	00000000	00000000	00000138	       316
# 3845000	00000140	0000013c	00000138	00000000	00000000	         0
# 3855000	00000138	00000000	00000000	00000138	00000000	         0
# 3865000	0000013c	00000138	00000000	00000000	00000138	       316
# 3875000	00000140	0000013c	00000138	00000000	00000000	         0
# 3885000	00000138	00000000	00000000	00000138	00000000	         0
# 3895000	0000013c	00000138	00000000	00000000	00000138	       316
# 3905000	00000140	0000013c	00000138	00000000	00000000	         0
# 3915000	00000138	00000000	00000000	00000138	00000000	         0
# 3925000	0000013c	00000138	00000000	00000000	00000138	       316
# 3935000	00000140	0000013c	00000138	00000000	00000000	         0
# 3945000	00000138	00000000	00000000	00000138	00000000	         0
# 3955000	0000013c	00000138	00000000	00000000	00000138	       316
# 3965000	00000140	0000013c	00000138	00000000	00000000	         0
# 3975000	00000138	00000000	00000000	00000138	00000000	         0
# 3985000	0000013c	00000138	00000000	00000000	00000138	       316
# 3995000	00000140	0000013c	00000138	00000000	00000000	         0
# 4005000	00000138	00000000	00000000	00000138	00000000	         0
# 4015000	0000013c	00000138	00000000	00000000	00000138	       316
# 4025000	00000140	0000013c	00000138	00000000	00000000	         0
# 4035000	00000138	00000000	00000000	00000138	00000000	         0
# 4045000	0000013c	00000138	00000000	00000000	00000138	       316
# 4055000	00000140	0000013c	00000138	00000000	00000000	         0
# 4065000	00000138	00000000	00000000	00000138	00000000	         0
# 4075000	0000013c	00000138	00000000	00000000	00000138	       316
# 4085000	00000140	0000013c	00000138	00000000	00000000	         0
# 4095000	00000138	00000000	00000000	00000138	00000000	         0
# 4105000	0000013c	00000138	00000000	00000000	00000138	       316
# 4115000	00000140	0000013c	00000138	00000000	00000000	         0
# 4125000	00000138	00000000	00000000	00000138	00000000	         0
# 4135000	0000013c	00000138	00000000	00000000	00000138	       316
# 4145000	00000140	0000013c	00000138	00000000	00000000	         0
# 4155000	00000138	00000000	00000000	00000138	00000000	         0
# 4165000	0000013c	00000138	00000000	00000000	00000138	       316
# 4175000	00000140	0000013c	00000138	00000000	00000000	         0
# 4185000	00000138	00000000	00000000	00000138	00000000	         0
# 4195000	0000013c	00000138	00000000	00000000	00000138	       316
# 4205000	00000140	0000013c	00000138	00000000	00000000	         0
# 4215000	00000138	00000000	00000000	00000138	00000000	         0
# 4225000	0000013c	00000138	00000000	00000000	00000138	       316
# 4235000	00000140	0000013c	00000138	00000000	00000000	         0
# 4245000	00000138	00000000	00000000	00000138	00000000	         0
# 4255000	0000013c	00000138	00000000	00000000	00000138	       316
# 4265000	00000140	0000013c	00000138	00000000	00000000	         0
# 4275000	00000138	00000000	00000000	00000138	00000000	         0
# 4285000	0000013c	00000138	00000000	00000000	00000138	       316
# 4295000	00000140	0000013c	00000138	00000000	00000000	         0
# 4305000	00000138	00000000	00000000	00000138	00000000	         0
# 4315000	0000013c	00000138	00000000	00000000	00000138	       316
# 4325000	00000140	0000013c	00000138	00000000	00000000	         0
# 4335000	00000138	00000000	00000000	00000138	00000000	         0
# 4345000	0000013c	00000138	00000000	00000000	00000138	       316
# 4355000	00000140	0000013c	00000138	00000000	00000000	         0
# 4365000	00000138	00000000	00000000	00000138	00000000	         0
# 4375000	0000013c	00000138	00000000	00000000	00000138	       316
# 4385000	00000140	0000013c	00000138	00000000	00000000	         0
# 4395000	00000138	00000000	00000000	00000138	00000000	         0
